<?xml version="1.0" encoding="utf-8"?>
<!-- Generator: Adobe Illustrator 16.0.2, SVG Export Plug-In . SVG Version: 6.00 Build 0)  -->
<!DOCTYPE svg PUBLIC "-//W3C//DTD SVG 1.1//EN" "http://www.w3.org/Graphics/SVG/1.1/DTD/svg11.dtd">
<svg version="1.1" id="Layer_1" xmlns="http://www.w3.org/2000/svg" xmlns:xlink="http://www.w3.org/1999/xlink" x="0px" y="0px"
	 width="24px" height="24px" viewBox="0 0 24 24" enable-background="new 0 0 24 24" xml:space="preserve">
<path fill="#FFFFFF" d="M1.607,11.999L1.607,11.999c0,5.74,4.652,10.395,10.393,10.395c5.74,0,10.394-4.654,10.394-10.395
	C22.394,6.26,17.739,1.606,12,1.606C6.259,1.606,1.607,6.26,1.607,11.999 M14.452,10.119l-0.127,1.661h-1.705v5.773h-2.152V11.78
	H9.32v-1.66h1.149V9.003c0-0.493,0.013-1.252,0.369-1.723c0.377-0.497,0.895-0.835,1.783-0.835c1.45,0,2.059,0.206,2.059,0.206
	l-0.287,1.702c0,0-0.479-0.139-0.926-0.139c-0.446,0-0.847,0.161-0.847,0.607v1.298H14.452z"/>
</svg>
