<?xml version="1.0" encoding="utf-8"?>
<!-- Generator: Adobe Illustrator 16.0.2, SVG Export Plug-In . SVG Version: 6.00 Build 0)  -->
<!DOCTYPE svg PUBLIC "-//W3C//DTD SVG 1.1//EN" "http://www.w3.org/Graphics/SVG/1.1/DTD/svg11.dtd">
<svg version="1.1" id="Layer_1" xmlns="http://www.w3.org/2000/svg" xmlns:xlink="http://www.w3.org/1999/xlink" x="0px" y="0px"
	 width="24px" height="24px" viewBox="0 0 24 24" enable-background="new 0 0 24 24" xml:space="preserve">
<path fill="#FFFFFF" d="M1.606,12L1.606,12c0,5.74,4.653,10.393,10.393,10.393S22.393,17.739,22.393,12S17.739,1.607,12,1.607
	S1.606,6.26,1.606,12 M16.425,9.73c0.004,0.096,0.007,0.195,0.007,0.295c0,3.016-2.296,6.496-6.497,6.496
	c-1.29,0-2.489-0.378-3.499-1.026c0.177,0.022,0.36,0.033,0.544,0.033c1.069,0,2.054-0.365,2.835-0.979
	c-0.999-0.018-1.841-0.678-2.132-1.586c0.139,0.027,0.282,0.041,0.43,0.041c0.209,0,0.409-0.025,0.601-0.08
	c-1.046-0.208-1.832-1.131-1.832-2.238v-0.028c0.308,0.17,0.661,0.274,1.034,0.286C7.304,10.535,6.9,9.834,6.9,9.043
	c0-0.419,0.113-0.81,0.31-1.149c1.127,1.383,2.808,2.291,4.706,2.386c-0.151-0.64-0.006-1.414,0.402-2.064
	c1.279-1.102,2.703-0.856,3.488-0.018c0.52-0.102,1.008-0.291,1.45-0.553c-0.171,0.533-0.531,0.98-1.005,1.263
	c0.464-0.055,0.904-0.178,1.313-0.36C17.259,9.006,16.872,9.41,16.425,9.73"/>
</svg>
