{
  "version": "1.0",
  "defaultProvider": "cdnjs",
  "libraries": [
    {
      "provider": "cdnjs",
      "library": "jquery@2.1.3",
      "destination": "lib/jquery"
    },

    {
      "provider": "unpkg",
      "library": "bootstrap@3.3.4",
      "destination": "lib/bootstrap",
      "files": [
        "dist/css/bootstrap-theme.css",
        "dist/css/bootstrap-theme.css.map",
        "dist/css/bootstrap-theme.min.css",
        "dist/css/bootstrap.css",
        "dist/css/bootstrap.css.map",
        "dist/css/bootstrap.min.css",
        "dist/fonts/glyphicons-halflings-regular.eot",
        "dist/fonts/glyphicons-halflings-regular.svg",
        "dist/fonts/glyphicons-halflings-regular.ttf",
        "dist/fonts/glyphicons-halflings-regular.woff",
        "dist/fonts/glyphicons-halflings-regular.woff2",
        "dist/js/bootstrap.js",
        "dist/js/bootstrap.min.js",
        "dist/js/npm.js"
      ]
    },
    {
      "provider": "jsdelivr",
      "library": "lato-font@3.0.0",
      "destination": "lib/lato-font/",
      "files": [
        "css/lato-font.css",
        "css/lato-font.min.css",
        "fonts/lato-black/lato-black.woff",
        "fonts/lato-black/lato-black.woff2",
        "fonts/lato-black-italic/lato-black-italic.woff",
        "fonts/lato-black-italic/lato-black-italic.woff2",
        "fonts/lato-bold/lato-bold.woff",
        "fonts/lato-bold/lato-bold.woff2",
        "fonts/lato-bold-italic/lato-bold-italic.woff",
        "fonts/lato-bold-italic/lato-bold-italic.woff2",
        "fonts/lato-hairline/lato-hairline.woff",
        "fonts/lato-hairline/lato-hairline.woff2",
        "fonts/lato-hairline-italic/lato-hairline-italic.woff",
        "fonts/lato-hairline-italic/lato-hairline-italic.woff2",
        "fonts/lato-heavy/lato-heavy.woff",
        "fonts/lato-heavy/lato-heavy.woff2",
        "fonts/lato-heavy-italic/lato-heavy-italic.woff",
        "fonts/lato-heavy-italic/lato-heavy-italic.woff2",
        "fonts/lato-light/lato-light.woff",
        "fonts/lato-light/lato-light.woff2",
        "fonts/lato-light-italic/lato-light-italic.woff",
        "fonts/lato-light-italic/lato-light-italic.woff2",
        "fonts/lato-medium/lato-medium.woff",
        "fonts/lato-medium/lato-medium.woff2",
        "fonts/lato-medium-italic/lato-medium-italic.woff",
        "fonts/lato-medium-italic/lato-medium-italic.woff2",
        "fonts/lato-normal/lato-normal.woff",
        "fonts/lato-normal/lato-normal.woff2",
        "fonts/lato-normal-italic/lato-normal-italic.woff",
        "fonts/lato-normal-italic/lato-normal-italic.woff2",
        "fonts/lato-semibold/lato-semibold.woff",
        "fonts/lato-semibold/lato-semibold.woff2",
        "fonts/lato-semibold-italic/lato-semibold-italic.woff",
        "fonts/lato-semibold-italic/lato-semibold-italic.woff2",
        "fonts/lato-thin/lato-thin.woff",
        "fonts/lato-thin/lato-thin.woff2",
        "fonts/lato-thin-italic/lato-thin-italic.woff",
        "fonts/lato-thin-italic/lato-thin-italic.woff2"
      ]
    },
    {
      "provider": "jsdelivr",
      "library": "typeface-karla@0.0.72",
      "destination": "lib/typeface-karla/",
      "files": [
        "files-hash.json",
        "index.css",
        "index.min.css",
        "package.json",
        "README.md",
        "files/karla-latin-400.woff",
        "files/karla-latin-400.woff2",
        "files/karla-latin-400italic.woff",
        "files/karla-latin-400italic.woff2",
        "files/karla-latin-700.woff",
        "files/karla-latin-700.woff2",
        "files/karla-latin-700italic.woff",
        "files/karla-latin-700italic.woff2"
      ]
    },
    {
      "library": "ekko-lightbox@5.3.0",
      "destination": "lib/ekko-lightbox/"
    },
    {
      "library": "moment.js@2.24.0",
      "destination": "lib/moment.js/"
    },
    {
      "library": "eonasdan-bootstrap-datetimepicker@4.17.47",
      "destination": "lib/eonasdan-bootstrap-datetimepicker/"
    },
    {
      "library": "1000hz-bootstrap-validator@0.11.9",
      "destination": "lib/1000hz-bootstrap-validator/"
    },
    {
      "provider": "jsdelivr",
      "library": "simple-icons@1.13.0",
      "destination": "lib/simple-icons/"
    },
    {
      "library": "waypoints@4.0.1",
      "destination": "lib/wayponts"
    }
 
]
}